"SpriteCard"
{
	$basetexture "particle/vistaSmokeV1/vistasmokev1_emods"
	$DUALSEQUENCE 1
	$SEQUENCE_BLEND_MODE 1 //2
	$MAXLUMFRAMEBLEND1 0  //0
	$MAXLUMFRAMEBLEND2 1  //1
	$ZOOMANIMATESEQ2 24
	$depthblend 0
	//"!srgb?$overbrightfactor" "1.2"
	$ignorez 0
	//$VERTEXFOGAMOUNT 1
	$nocull 1
	"GPU<2?$BLENDFRAMES" "0"
}