"vertexlitgeneric"
{
	"$basetexture"            "models/weapons/v_models/csgo/arms/professional/professional_watch_silver"
	"$bumpmap"                "models/weapons/v_models/csgo/arms/professional/professional_watch_normal"
	"$phong"                  "1"
	"$phongboost"             "1"
	"$phongalbedoboost"       "50"
	"$phongfresnelranges"     "[1 1 1]"
	//"$phongexponenttexture"   "models/weapons/v_models/csgo/arms/professional/pirate_watch_exp"
	"$basemapalphaphongmask"  "1"
	"$envmap"                 "env_cubemap"
	"$envmapfresnel"          "1"
	"$envmapfresnelminmaxexp" "[0 5 .4]"
	"$envmaptint"             "[.1 .1 .1]"
	"$phongalbedotint"        "1"
}