"VertexLitGeneric"
{
	"$baseTexture" "models/weapons/v_models/arms/t_arms_phoenix"
	"$bumpMap" "models/weapons/v_models/arms/t_arms_phoenix_normal"
	"$phongexponenttexture"    "models/weapons/v_models/arms/tm_arms_phoenix_exp"
	"$phong" "1"
	"$phongBoost" "0.5"
	"$phongTint" "[1 1 1]"
	"$phongFresnelRanges" "[.2 .2 1]"
	"$rimlight" "1"
	"$rimlightexponent" "9"
	"$rimlightboost" ".2"
	"$rimmask" 1
	
	"$matcap" "models\player\tm_phoenix\matcap_phoenix"
}