"VertexLitGeneric"
{
	"$baseTexture" "models/weapons/v_models/arms/tm_professional_arms"
	"$phong" "1"
	"$phongBoost" "1"
	"$phongExponent" "2"
	"$phongTint" "[1 1 1]"
	"$halfLambert" "0"
	"$phongFresnelRanges" "[.4 .8 30]"
	"$ambientOcclusion" "1"
	"$diffuseExp" "1.5"
}