"VertexlitGeneric"
{
	"$basetexture" "models\weapons\v_models\melee\spanner_color"

	"$phong" "1"
	"$phongboost" "20"
	"$phongalbedoboost" "70"
	"$phongfresnelranges" "[.8 .8 1]"
	"$phongexponent" "55"
	"$phongexponenttexture" "models\weapons\v_models\melee\spanner_exponent"

	"$basemapalphaphongmask" "1"
	
	"$envmap" "env_cubemap"
	"$envmapfresnel" "1"
	"$envmaptint" 		"[.4 .4 .4]"

	"$phongalbedotint" "1"
	"$phongdisablehalflambert" "1"

}