

VertexLitGeneric
{
	"$baseTexture" "models\weapons\v_models\csgo\snip_g3sg1\snip_g3sg1"
	"$phongexponenttexture" "models\weapons\v_models\csgo\snip_g3sg1\snip_g3sg1_exponent"

	"$phong" "1"


	"$phongboost" "1"
	"$phongalbedoboost" "55"
	"$phongfresnelranges" "[.83 .83 1]"

	"$basemapalphaphongmask" "1"

	"$phongalbedotint" "1"

	"$phongdisablehalflambert" "1"

	"$envmap" "env_cubemap"
	"$envmapfresnel" "1"
	"$envmaptint" 		"[.2 .2 .2]"

}






